4 Boucles et calculs vectoriels | Notes de cours de R - Version 2
…
## [1] -11.110399   8.129051 -11.295354  -8.150094  -9.325573  -8.541390

Si à présent, nous souhaitons appliquer plusieurs fonctions à chaque élément de notre liste et récupérer le résultat sous la forme d’un tableau de données, on peut utiliser la fonction map_df(). Admettons que l’on souhaite obtenir, pour chaque élément, la moyenne des valeurs, le premier et le troisième quartiles. On peut procéder comme suit :

simulations %>% 
  map_df(function(x){
    tibble(mean = mean(x),
           q1 = quantile(x, probs = .25),
           q3 = quantile(x, probs = .75))
  })

## # A tibble: 100 x 3
##      mean      q1    q3
##     <dbl>   <dbl> <dbl>
##  1 -10.2  -11.1   -9.37
##  2   9.92   8.13  12.0 
##  3  -8.25 -11.3   -5.24
##  4  -6.88  -8.15  -5.33
##  5  -7.12  -9.33  -5.17
##  6  -7.05  -8.54  -5.38
##  7   4.93   3.44   6.22
##  8   1.74   0.946  2.52
##  9  -4.57  -6.14  -2.94
## 10   9.12   5.77  12.1 
## # … with 90 more rows

Dans l’exemple précédent, à chaque itération, les fonctions mean() et quantile() ont été évaluées sur l’élément courant que nous avons décidé d’appeler x. Le résultat de l’évaluation de ces fonctions a été, à chaque itération, consigné dans un tableau, à l’aide de la fonction tibble().

Afin d’éviter de devoir écrire function(x), il est possible d’utiliser un raccourci : ~. L’élément courant auquel on applique une fonction est alors désigné par le symbole . :

simulations %>% 
  map_df(~tibble(
    mean = mean(.),
           q1 = quantile(., probs = .25),
           q3 = quantile(., probs = .75)
  ))

## # A tibble: 100 x 3
##      mean      q1    q3
##     <dbl>   <dbl> <dbl>
##  1 -10.2  -11.1   -9.37
##  2   9.92   8.13  12.0 
##  3  -8.25 -11.3   -5.24
##  4  -6.88  -8.15  -5.33
##  5  -7.12  -9.33  -5.17
##  6  -7.05  -8.54  -5.38
##  7   4.93   3.44   6.22
##  8   1.74   0.946  2.52
##  9  -4.57  -6.14  -2.94
## 10   9.12   5.77  12.1 
## # … with 90 more rows
…
