5 Graphiques | Notes de cours de R - Version 2
…
L’affichage de rubans autour d’une valeur centrale permet, notamment, de réaliser une représentation graphique d’intervalles de confiance. Il suffit pour cela de faire appel à la fonction geom_ribbon() et de renseigner en plus des arguments x et y qui peuvent être hérités d’une couche précédente, les arguments ymin et ymax qui vont définir les valeurs minimum et maximum pour les ordonnées, respectivement, en chaque point d’abscisse.

Admettons que l’on dispose d’un tableau de données dans lequel, pour chaque unité de temps, on dispose d’une valeur de nombre de passagers estimés, ainsi que les bornes d’un intervalle de confiance données dans les colonnes passenger_low et passenger_high.

df_passengers <- 
  tibble(
  time = as.vector(time(AirPassengers)),
  passenger = as.vector(AirPassengers)) %>% 
  mutate(
    passenger_low = passenger-20,
    passenger_high = passenger+20
  )
df_passengers

## # A tibble: 144 x 4
##     time passenger passenger_low passenger_high
##    <dbl>     <dbl>         <dbl>          <dbl>
##  1 1949        112            92            132
##  2 1949.       118            98            138
##  3 1949.       132           112            152
##  4 1949.       129           109            149
##  5 1949.       121           101            141
##  6 1949.       135           115            155
##  7 1950.       148           128            168
##  8 1950.       148           128            168
##  9 1950.       136           116            156
## 10 1950.       119            99            139
## # … with 134 more rows
…
